<?xml version="1.0" encoding="UTF-8"?>
<svg width="24px" height="24px" viewBox="0 0 24 24" version="1.1" xmlns="http://www.w3.org/2000/svg" xmlns:xlink="http://www.w3.org/1999/xlink">
    <!-- Generator: Sketch 48.1 (47250) - http://www.bohemiancoding.com/sketch -->
    <title>icon/20px/arrow-down-right</title>
    <desc>Created with Sketch.</desc>
    <defs>
        <path d="M14.1907022,5.82487754 C13.5408647,6.47971378 13.5408647,7.53944878 14.1907022,8.19428502 L16.3085059,10.3254188 L14.1473797,10.3254188 L10.9631759,10.3254188 L3.66999974,10.3254188 C2.74856349,10.3254188 2.00208349,11.0752313 2.00208349,12 C2.00208349,12.9247687 2.74856349,13.6745812 3.66999974,13.6745812 L10.9631759,13.6745812 L14.1473797,13.6745812 L16.3085059,13.6745812 L14.1907022,15.805715 C13.5408647,16.4605512 13.5408647,17.51862 14.1907022,18.1751225 C14.5172872,18.5000412 14.9438472,18.665 15.3670747,18.665 C15.7953009,18.665 16.2201947,18.5000412 16.5484459,18.1751225 L21.5105384,13.1847037 C22.1603759,12.5315337 22.1603759,11.4717988 21.5105384,10.8152963 L16.5484459,5.82487754 C16.2218609,5.49829254 15.7953009,5.33500004 15.3687409,5.33500004 C14.9421809,5.33500004 14.5156209,5.49829254 14.1907022,5.82487754 Z" id="path-1"></path>
    </defs>
    <g id="Symbols" stroke="none" stroke-width="1" fill="none" fill-rule="evenodd">
        <g id="icon/20px/arrow-down-right">
            <mask id="mask-2" fill="white">
                <use xlink:href="#path-1"></use>
            </mask>
            <use id="arrow" fill="#3F4F71" transform="translate(12.000000, 12.000000) scale(-1, -1) rotate(-135.000000) translate(-12.000000, -12.000000) " xlink:href="#path-1"></use>
        </g>
    </g>
</svg>