<?xml version="1.0" encoding="UTF-8"?>
<svg width="24px" height="24px" viewBox="0 0 24 24" version="1.1" xmlns="http://www.w3.org/2000/svg" xmlns:xlink="http://www.w3.org/1999/xlink">
    <!-- Generator: Sketch 48.1 (47250) - http://www.bohemiancoding.com/sketch -->
    <title>bitbucket/20px/create-fork</title>
    <desc>Created with Sketch.</desc>
    <defs>
        <path d="M3,12 C3,11.4477153 3.45303631,11 3.99703014,11 L11,11 L11,13 L3.99703014,13 C3.4463856,13 3,12.5561352 3,12 Z M11,11 L9,11 L9,9 C9,7.34390977 10.3601435,6 12.0149288,6 L13.0064585,6 C13.5587433,6 14.0064585,6.44771525 14.0064585,7 C14.0064585,7.55228475 13.5587433,8 13.0064585,8 L12.0149288,8 C11.4642294,8 11,8.4489634 11,9 L11,11 Z M17.5857077,16 L17.2928539,15.7071068 C16.902382,15.3165825 16.902382,14.6834175 17.2928539,14.2928932 C17.6833257,13.9023689 18.3164056,13.9023689 18.7068774,14.2928932 L20.7024554,16.2887396 C21.1031225,16.6894604 21.0952209,17.3184421 20.7024554,17.7112604 L18.7068774,19.7071068 C18.3164056,20.0976311 17.6833257,20.0976311 17.2928539,19.7071068 C16.902382,19.3165825 16.902382,18.6834175 17.2928539,18.2928932 L17.5857077,18 L12.0001482,18 C10.3453629,18 9,16.6560902 9,15 L9,13 L11,13 L11,15 C11,15.5510366 11.4494489,16 12.0001482,16 L17.5857077,16 Z M21,7 C21,7.552 20.552,8 20,8 L19,8 L19,9 C19,9.552 18.552,10 18,10 C17.448,10 17,9.552 17,9 L17,8 L16,8 C15.448,8 15,7.552 15,7 C15,6.448 15.448,6 16,6 L17,6 L17,5 C17,4.448 17.448,4 18,4 C18.552,4 19,4.448 19,5 L19,6 L20,6 C20.552,6 21,6.448 21,7 Z" id="path-1"></path>
    </defs>
    <g id="Symbols" stroke="none" stroke-width="1" fill="none" fill-rule="evenodd">
        <g id="bitbucket/20px/create-fork">
            <mask id="mask-2" fill="white">
                <use xlink:href="#path-1"></use>
            </mask>
            <use id="Combined-Shape" fill="#172B4D" fill-rule="nonzero" xlink:href="#path-1"></use>
        </g>
    </g>
</svg>