<?xml version="1.0" encoding="UTF-8"?>
<svg width="24px" height="24px" viewBox="0 0 24 24" version="1.1" xmlns="http://www.w3.org/2000/svg" xmlns:xlink="http://www.w3.org/1999/xlink">
    <!-- Generator: Sketch 48.1 (47250) - http://www.bohemiancoding.com/sketch -->
    <title>icon/20px/following</title>
    <desc>Created with Sketch.</desc>
    <defs>
        <path d="M19.9905437,6.00034984 C19.9920614,6.26197051 19.8890087,6.51342885 19.70415,6.69917826 L18.3709378,7.96888059 L19.6547718,9.26811088 C19.9365992,9.50865537 20.0593591,9.88634607 19.97258,10.2458988 C19.8858009,10.6054515 19.604129,10.8861825 19.2433711,10.9726716 C18.8826132,11.0591608 18.5036565,10.9368109 18.2623057,10.6559251 L16.2871766,8.68739431 C15.9042745,8.30349395 15.9042745,7.68348049 16.2871766,7.29958013 L18.3215596,5.27199347 C18.6096587,4.99816817 19.0345517,4.92352318 19.3992259,5.08266956 C19.7639001,5.24181594 19.9970398,5.60363098 19.9905437,6.00034984 Z M4,14.0001103 C4,12.8954799 4.90195036,12 6.0085302,12 L13.9914698,12 C15.1007504,12 16,12.8938878 16,14.006104 L16,18.4460997 C16,21.8513001 4,21.8513001 4,18.4460997 C4,21.8513001 4,14.0001103 4,14.0001103 Z M10,11 C7.790861,11 6,9.209139 6,7 C6,4.790861 7.790861,3 10,3 C12.209139,3 14,4.790861 14,7 C14,9.209139 12.209139,11 10,11 Z" id="path-1"></path>
    </defs>
    <g id="Symbols" stroke="none" stroke-width="1" fill="none" fill-rule="evenodd">
        <g id="icon/20px/following">
            <mask id="mask-2" fill="white">
                <use xlink:href="#path-1"></use>
            </mask>
            <use id="Combined-Shape" fill="#142850" xlink:href="#path-1"></use>
        </g>
    </g>
</svg>