<?xml version="1.0" encoding="UTF-8"?>
<svg width="24px" height="24px" viewBox="0 0 24 24" version="1.1" xmlns="http://www.w3.org/2000/svg" xmlns:xlink="http://www.w3.org/1999/xlink">
    <!-- Generator: Sketch 48.1 (47250) - http://www.bohemiancoding.com/sketch -->
    <title>icon/20px/notification</title>
    <desc>Created with Sketch.</desc>
    <defs>
        <path d="M6.48678704,17.669 C5.70578704,16.888 5.70578704,15.621 6.48678704,14.84 L9.31578704,17.669 C8.53478704,18.45 7.26778704,18.45 6.48678704,17.669 Z M11.383787,5.478 C12.369787,4.493 13.661787,4 14.953787,4 C15.925787,4 16.898787,4.28 17.741787,4.839 C17.761787,4.813 17.784787,4.789 17.807787,4.765 C18.202787,4.371 18.841787,4.371 19.235787,4.765 C19.629787,5.16 19.629787,5.799 19.235787,6.192 C19.211787,6.216 19.186787,6.239 19.161787,6.259 C20.462787,8.22 20.249787,10.888 18.521787,12.615 L17.7969421,13.3401835 C17.0115777,14.1259147 15.9798432,15.5582209 15.4852538,16.546577 L13.975787,19.563 C13.726787,20.063 13.202787,20.147 12.804787,19.75 L4.24878704,11.195 C3.85178704,10.798 3.94078704,10.271 4.43578704,10.023 L7.45283766,8.51478851 C8.44900876,8.01680658 9.87682126,6.98566964 10.6589421,6.20318349 L11.383787,5.478 Z" id="path-1"></path>
    </defs>
    <g id="Symbols" stroke="none" stroke-width="1" fill="none" fill-rule="evenodd">
        <g id="icon/20px/notification">
            <mask id="mask-2" fill="white">
                <use xlink:href="#path-1"></use>
            </mask>
            <use id="Combined-Shape" fill="#3F4F71" xlink:href="#path-1"></use>
        </g>
    </g>
</svg>