<?xml version="1.0" encoding="UTF-8"?>
<svg width="24px" height="24px" viewBox="0 0 24 24" version="1.1" xmlns="http://www.w3.org/2000/svg" xmlns:xlink="http://www.w3.org/1999/xlink">
    <!-- Generator: Sketch 48.1 (47250) - http://www.bohemiancoding.com/sketch -->
    <title>icon/20px/vid-full-screen-off</title>
    <desc>Created with Sketch.</desc>
    <defs>
        <path d="M16.4075507,9.20346265 L17.7930353,9.20346265 C18.3460353,9.20346265 18.7930353,9.65146265 18.7930353,10.2044627 C18.7930353,10.7574627 18.3460353,11.2064627 17.7930353,11.2064627 L13.8930353,11.2064627 C13.2860353,11.2064627 12.7930353,10.7124627 12.7930353,10.1044627 L12.7930353,6.20846265 C12.7930353,5.65446265 13.2410353,5.20646265 13.7930353,5.20646265 C14.3450353,5.20646265 14.7930353,5.65446265 14.7930353,6.20846265 L14.7930353,7.59410651 L18.8599177,3.52762231 C19.0740867,3.31463101 19.3574144,3.20646265 19.6407421,3.20646265 C19.9263008,3.20646265 20.2118594,3.31574615 20.4304902,3.533198 L20.4673005,3.56999754 C20.8967539,3.99932556 20.9045622,4.70743799 20.4728778,5.14011142 L16.4075507,9.20346265 Z M7.34448805,15.2098016 L5.79303533,15.2098016 C5.24075058,15.2098016 4.79303533,14.7613389 4.79303533,14.2081321 C4.79303533,13.6549253 5.24075058,13.2064627 5.79303533,13.2064627 L9.69303533,13.2064627 C10.3003201,13.2064627 10.7930353,13.7000005 10.7930353,14.308299 L10.7930353,18.2047932 C10.7930353,18.758 10.3453201,19.2064627 9.79303533,19.2064627 C9.24075058,19.2064627 8.79303533,18.758 8.79303533,18.2047932 L8.79303533,16.651671 L4.93972124,20.5049851 C4.55439494,20.8903114 3.9223047,20.8905236 3.53257418,20.5007931 L3.49870487,20.4669238 C3.11377391,20.0819929 3.10709752,19.4471921 3.49451286,19.0597767 L7.34448805,15.2098016 Z" id="path-1"></path>
    </defs>
    <g id="Symbols" stroke="none" stroke-width="1" fill="none" fill-rule="evenodd">
        <g id="icon/20px/vid-full-screen-off">
            <mask id="mask-2" fill="white">
                <use xlink:href="#path-1"></use>
            </mask>
            <use id="full-screen-off" fill="#42526E" fill-rule="nonzero" xlink:href="#path-1"></use>
        </g>
    </g>
</svg>