<?xml version="1.0" encoding="UTF-8"?>
<svg width="16px" height="16px" viewBox="0 0 16 16" version="1.1" xmlns="http://www.w3.org/2000/svg" xmlns:xlink="http://www.w3.org/1999/xlink">
    <!-- Generator: Sketch 48.2 (47327) - http://www.bohemiancoding.com/sketch -->
    <title>icon/16px/chevron-up-circle-16px</title>
    <desc>Created with Sketch.</desc>
    <defs>
        <path d="M1,8 C1,11.866 4.134,15 8,15 C11.866,15 15,11.866 15,8 C15,4.134 11.866,1 8,1 C4.134,1 1,4.134 1,8 Z M5.404,9.187 C5.131,8.913 5.131,8.469 5.404,8.195 L7.455,6.126 C7.604,5.975 7.798,5.901 7.993,5.901 C8.189,5.901 8.386,5.975 8.538,6.126 L10.595,8.201 C10.868,8.475 10.868,8.921 10.595,9.195 C10.461,9.331 10.282,9.401 10.104,9.401 C9.926,9.401 9.747,9.331 9.612,9.195 L7.997,7.566 L6.388,9.187 C6.252,9.325 6.074,9.393 5.896,9.393 C5.718,9.393 5.54,9.325 5.404,9.187 Z" id="path-1"></path>
    </defs>
    <g id="Symbols" stroke="none" stroke-width="1" fill="none" fill-rule="evenodd">
        <g id="icon/16px/chevron-up-circle">
            <mask id="mask-2" fill="white">
                <use xlink:href="#path-1"></use>
            </mask>
            <use id="Clip-2" fill="#42526E" xlink:href="#path-1"></use>
        </g>
    </g>
</svg>