<?xml version="1.0" encoding="UTF-8"?>
<svg width="16px" height="16px" viewBox="0 0 16 16" version="1.1" xmlns="http://www.w3.org/2000/svg" xmlns:xlink="http://www.w3.org/1999/xlink">
    <!-- Generator: Sketch 48.2 (47327) - http://www.bohemiancoding.com/sketch -->
    <title>icon/16px/confluence-16px</title>
    <desc>Created with Sketch.</desc>
    <defs>
        <path d="M1.72922735,11.561742 C4.17987414,7.4125459 7.38357304,7.28939113 11.1531368,9.19493129 C12.2009551,9.72113803 13.3649585,10.2921283 13.9501876,10.5787431 C14.1636971,10.6804508 14.2594411,10.9415132 14.1653453,11.1654076 L12.8335189,14.3002563 C12.7866456,14.4110586 12.6986637,14.4973902 12.5896252,14.5395753 C12.4805868,14.5817604 12.3597824,14.5762046 12.2547445,14.524174 L9.48136111,13.1515581 C7.47178772,12.1528849 6.35727057,11.9200105 5.24920816,13.8233114 C5.092143,14.0942519 4.94798731,14.347279 4.83610528,14.5420874 C4.77715507,14.6453195 4.68083712,14.7195873 4.56877604,14.7482169 C4.45671497,14.7768465 4.33830054,14.757439 4.24011831,14.6943515 L1.44306755,12.9030094 C1.24360991,12.7747612 1.17951046,12.5039417 1.29891185,12.2939531 C1.43230966,12.0745137 1.58937482,11.7990949 1.72922735,11.561742 Z M14.2707726,4.44787473 C11.8201259,8.59259251 8.61642696,8.72022563 4.83825685,6.81692465 C3.79043861,6.29071791 2.62643517,5.71972762 2.04120609,5.43311288 C1.82769664,5.33140518 1.73195263,5.07034273 1.82604834,4.84644834 L3.15787482,1.71159967 C3.20474814,1.60079733 3.29272998,1.51446572 3.40176845,1.47228063 C3.51080692,1.43009553 3.63161131,1.43565137 3.73664917,1.48768191 L6.50142627,2.85358026 C8.51099966,3.85225348 9.62551681,4.08512795 10.7335792,2.18182697 C10.8906444,1.91088648 11.0348001,1.65785941 11.1466821,1.46305096 C11.2062828,1.35544822 11.3061446,1.27843701 11.4224092,1.25041637 C11.5386738,1.22239572 11.6608983,1.24588244 11.7598817,1.31526523 L14.5569325,3.10660733 C14.7563901,3.23485559 14.8204895,3.50567509 14.7010881,3.71566364 C14.5676903,3.93510305 14.4106252,4.2105219 14.2707726,4.44787473 Z" id="path-1"></path>
    </defs>
    <g id="Symbols" stroke="none" stroke-width="1" fill="none" fill-rule="evenodd">
        <g id="icon/16px/confluence">
            <mask id="mask-2" fill="white">
                <use xlink:href="#path-1"></use>
            </mask>
            <use id="Combined-Shape" fill="#42526E" fill-rule="nonzero" xlink:href="#path-1"></use>
        </g>
    </g>
</svg>