<?xml version="1.0" encoding="UTF-8"?>
<svg width="16px" height="16px" viewBox="0 0 16 16" version="1.1" xmlns="http://www.w3.org/2000/svg" xmlns:xlink="http://www.w3.org/1999/xlink">
    <!-- Generator: Sketch 48.2 (47327) - http://www.bohemiancoding.com/sketch -->
    <title>confluence/16px/merge-table-cells</title>
    <desc>Created with Sketch.</desc>
    <defs></defs>
    <g id="Editor-icons---v2" stroke="none" stroke-width="1" fill="none" fill-rule="evenodd">
        <g id="confluence/16px/merge-table-cells" fill="#42526E">
            <path d="M3,1 L13,1 C14.1045695,1 15,1.8954305 15,3 L15,13 C15,14.1045695 14.1045695,15 13,15 L3,15 C1.8954305,15 1,14.1045695 1,13 L1,3 C1,1.8954305 1.8954305,1 3,1 Z M3,3 L3,5 L7,5 L7,3 L3,3 Z M3,7 L3,9 L13,9 L13,7 L3,7 Z M3,11 L3,13 L7,13 L7,11 L3,11 Z M9,11 L9,13 L13,13 L13,11 L9,11 Z M9,3 L9,5 L13,5 L13,3 L9,3 Z" id="Combined-Shape"></path>
        </g>
    </g>
</svg>