<?xml version="1.0" encoding="UTF-8"?>
<svg width="16px" height="16px" viewBox="0 0 16 16" version="1.1" xmlns="http://www.w3.org/2000/svg" xmlns:xlink="http://www.w3.org/1999/xlink">
    <!-- Generator: Sketch 48.2 (47327) - http://www.bohemiancoding.com/sketch -->
    <title>confluence/16px/paste-table-row</title>
    <desc>Created with Sketch.</desc>
    <defs></defs>
    <g id="Editor-icons---v2" stroke="none" stroke-width="1" fill="none" fill-rule="evenodd">
        <g id="confluence/16px/paste-table-row" fill="#42526E">
            <path d="M7,9 L14,9 C14.5522847,9 15,9.44771525 15,10 L15,13 C15,13.5522847 14.5522847,14 14,14 L7,14 C6.44771525,14 6,13.5522847 6,13 L6,10 C6,9.44771525 6.44771525,9 7,9 Z M8,11 L8,12 L13,12 L13,11 L8,11 Z" id="Combined-Shape"></path>
            <path d="M5,14 L3,14 C2.44771525,14 2,13.5522847 2,13 L2,3 C2,2.44771525 2.44771525,2 3,2 L6.06300874,2 C6.28503014,1.13738639 7.06808029,0.5 8,0.5 C8.93191971,0.5 9.71496986,1.13738639 9.93699126,2 L13,2 C13.5522847,2 14,2.44771525 14,3 L14,8 L12,8 L12,4 L11,4 L11,5.5 L5,5.5 L5,4 L4,4 L4,12 L5,12 L5,14 Z" id="Combined-Shape"></path>
        </g>
    </g>
</svg>