<?xml version="1.0" encoding="UTF-8"?>
<svg width="16px" height="16px" viewBox="0 0 16 16" version="1.1" xmlns="http://www.w3.org/2000/svg" xmlns:xlink="http://www.w3.org/1999/xlink">
    <!-- Generator: Sketch 48.2 (47327) - http://www.bohemiancoding.com/sketch -->
    <title>icon/16px/queues-16px</title>
    <desc>Created with Sketch.</desc>
    <defs>
        <path d="M13.2819719,2.77702559 C14.148888,2.99250396 14.7911067,3.7736154 14.7911067,4.7116515 L14.7911067,12.7974833 C14.7911067,13.8985311 13.9033444,14.7911067 12.7974833,14.7911067 L4.7116515,14.7911067 C3.77713333,14.7911067 2.99279489,14.1515783 2.77691558,13.2819719 L12.2733936,13.2819719 C12.8379663,13.2819719 13.2819719,12.830416 13.2819719,12.2733936 L13.2819719,2.77702559 Z M1.2088933,3.20830963 C1.2088933,2.10406248 2.1095692,1.2088933 3.20830963,1.2088933 L9.77342072,1.2088933 C10.8776679,1.2088933 11.7728371,2.1095692 11.7728371,3.20830963 L11.7728371,9.77342072 C11.7728371,10.8776679 10.8721612,11.7728371 9.77342072,11.7728371 L3.20830963,11.7728371 C2.10406248,11.7728371 1.2088933,10.8721612 1.2088933,9.77342072 L1.2088933,3.20830963 Z M2.71802812,2.71802812 L2.71802812,10.2637022 L10.2637022,10.2637022 L10.2637022,2.71802812 L2.71802812,2.71802812 Z M3.47259553,4.98173035 C3.47259553,4.56499428 3.81444197,4.22716294 4.2371274,4.22716294 L8.74460295,4.22716294 C9.16684224,4.22716294 9.50913482,4.56208887 9.50913482,4.98173035 C9.50913482,5.39846643 9.16728839,5.73629777 8.74460295,5.73629777 L4.2371274,5.73629777 C3.81488811,5.73629777 3.47259553,5.40137184 3.47259553,4.98173035 Z M3.47259553,7.24543259 C3.47259553,6.82869651 3.81444197,6.49086518 4.2371274,6.49086518 L8.74460295,6.49086518 C9.16684224,6.49086518 9.50913482,6.82579111 9.50913482,7.24543259 C9.50913482,7.66216866 9.16728839,8 8.74460295,8 L4.2371274,8 C3.81488811,8 3.47259553,7.66507407 3.47259553,7.24543259 Z" id="path-1"></path>
    </defs>
    <g id="Symbols" stroke="none" stroke-width="1" fill="none" fill-rule="evenodd">
        <g id="icon/16px/queues">
            <mask id="mask-2" fill="white">
                <use xlink:href="#path-1"></use>
            </mask>
            <use id="Mask" fill="#42526E" fill-rule="nonzero" xlink:href="#path-1"></use>
        </g>
    </g>
</svg>