<?xml version="1.0" encoding="UTF-8"?>
<svg width="16px" height="16px" viewBox="0 0 16 16" version="1.1" xmlns="http://www.w3.org/2000/svg" xmlns:xlink="http://www.w3.org/1999/xlink">
    <!-- Generator: Sketch 48.2 (47327) - http://www.bohemiancoding.com/sketch -->
    <title>confluence/16px/Table-of-contents</title>
    <desc>Created with Sketch.</desc>
    <defs>
        <path d="M2.0615097,3.69432305 C1.5859778,3.69432305 1.20048303,3.30882828 1.20048303,2.83329639 C1.20048303,2.35776449 1.5859778,1.97226972 2.0615097,1.97226972 C2.5370416,1.97226972 2.92253637,2.35776449 2.92253637,2.83329639 C2.92253637,3.30882828 2.5370416,3.69432305 2.0615097,3.69432305 Z M4.68342262,6.31897824 C4.20789072,6.31897824 3.82239595,5.93348347 3.82239595,5.45795157 C3.82239595,4.98241967 4.20789072,4.5969249 4.68342262,4.5969249 C5.15895452,4.5969249 5.54444929,4.98241967 5.54444929,5.45795157 C5.54444929,5.93348347 5.15895452,6.31897824 4.68342262,6.31897824 Z M2.0615097,8.89360398 C1.5859778,8.89360398 1.20048303,8.50810921 1.20048303,8.03257731 C1.20048303,7.55704542 1.5859778,7.17155065 2.0615097,7.17155065 C2.5370416,7.17155065 2.92253637,7.55704542 2.92253637,8.03257731 C2.92253637,8.50810921 2.5370416,8.89360398 2.0615097,8.89360398 Z M4.68342262,11.5237857 C4.20789072,11.5237857 3.82239595,11.1382909 3.82239595,10.662759 C3.82239595,10.1872271 4.20789072,9.80173234 4.68342262,9.80173234 C5.15895452,9.80173234 5.54444929,10.1872271 5.54444929,10.662759 C5.54444929,11.1382909 5.15895452,11.5237857 4.68342262,11.5237857 Z M2.0615097,14.0277303 C1.5859778,14.0277303 1.20048303,13.6422355 1.20048303,13.1667036 C1.20048303,12.6911717 1.5859778,12.3056769 2.0615097,12.3056769 C2.5370416,12.3056769 2.92253637,12.6911717 2.92253637,13.1667036 C2.92253637,13.6422355 2.5370416,14.0277303 2.0615097,14.0277303 Z M4.68342262,1.97226972 L11.3165774,1.97226972 C11.7921093,1.97226972 12.177604,2.35776449 12.177604,2.83329639 C12.177604,3.30882828 11.7921093,3.69432305 11.3165774,3.69432305 L4.68342262,3.69432305 C4.20789072,3.69432305 3.82239595,3.30882828 3.82239595,2.83329639 C3.82239595,2.35776449 4.20789072,1.97226972 4.68342262,1.97226972 Z M7.30533554,4.5969249 L13.9384903,4.5969249 C14.4140222,4.5969249 14.799517,4.98241967 14.799517,5.45795157 C14.799517,5.93348347 14.4140222,6.31897824 13.9384903,6.31897824 L7.30533554,6.31897824 C6.82980365,6.31897824 6.44430888,5.93348347 6.44430888,5.45795157 C6.44430888,4.98241967 6.82980365,4.5969249 7.30533554,4.5969249 Z M4.68342262,7.17155065 L11.3165774,7.17155065 C11.7921093,7.17155065 12.177604,7.55704542 12.177604,8.03257731 C12.177604,8.50810921 11.7921093,8.89360398 11.3165774,8.89360398 L4.68342262,8.89360398 C4.20789072,8.89360398 3.82239595,8.50810921 3.82239595,8.03257731 C3.82239595,7.55704542 4.20789072,7.17155065 4.68342262,7.17155065 Z M7.30533554,9.80173234 L13.9384903,9.80173234 C14.4140222,9.80173234 14.799517,10.1872271 14.799517,10.662759 C14.799517,11.1382909 14.4140222,11.5237857 13.9384903,11.5237857 L7.30533554,11.5237857 C6.82980365,11.5237857 6.44430888,11.1382909 6.44430888,10.662759 C6.44430888,10.1872271 6.82980365,9.80173234 7.30533554,9.80173234 Z M4.68342262,12.3056769 L11.3165774,12.3056769 C11.7921093,12.3056769 12.177604,12.6911717 12.177604,13.1667036 C12.177604,13.6422355 11.7921093,14.0277303 11.3165774,14.0277303 L4.68342262,14.0277303 C4.20789072,14.0277303 3.82239595,13.6422355 3.82239595,13.1667036 C3.82239595,12.6911717 4.20789072,12.3056769 4.68342262,12.3056769 Z" id="path-1"></path>
    </defs>
    <g id="Editor-icons" stroke="none" stroke-width="1" fill="none" fill-rule="evenodd">
        <g id="confluence/16px/Table-of-contents">
            <mask id="mask-2" fill="white">
                <use xlink:href="#path-1"></use>
            </mask>
            <use id="Combined-Shape" fill="#374666" xlink:href="#path-1"></use>
        </g>
    </g>
</svg>