<?xml version="1.0" encoding="UTF-8"?>
<svg width="16px" height="16px" viewBox="0 0 16 16" version="1.1" xmlns="http://www.w3.org/2000/svg" xmlns:xlink="http://www.w3.org/1999/xlink">
    <!-- Generator: Sketch 48.2 (47327) - http://www.bohemiancoding.com/sketch -->
    <title>confluence/16px/task-list</title>
    <desc>Created with Sketch.</desc>
    <defs>
        <path d="M2.59568528,5.3757903 L1.22584642,4.13009297 C1.02523816,3.94766482 1.02523816,3.65189035 1.22584642,3.4694622 C1.42645468,3.28703405 1.75170492,3.28703405 1.95231318,3.4694622 L2.9171115,4.34682574 L5.29747223,1.63941374 C5.47470004,1.43795555 5.79796097,1.40529273 6.01949573,1.56645928 C6.24103049,1.72762583 6.27694837,2.02159127 6.09972056,2.22304946 L3.36004283,5.33729277 L3.00151323,5.74484012 L2.59568528,5.3757903 Z M2.59568528,9.77133129 L1.22584642,8.52563396 C1.02523816,8.34320581 1.02523816,8.04743134 1.22584642,7.86500319 C1.42645468,7.68257504 1.75170492,7.68257504 1.95231318,7.86500319 L2.9171115,8.74236673 L5.29747223,6.03495473 C5.47470004,5.83349654 5.79796097,5.80083372 6.01949573,5.96200027 C6.24103049,6.12316682 6.27694837,6.41713226 6.09972056,6.61859045 L3.36004283,9.73283376 L3.00151323,10.1403811 L2.59568528,9.77133129 Z M2.59568528,14.1668723 L1.22584642,12.921175 C1.02523816,12.7387468 1.02523816,12.4429723 1.22584642,12.2605442 C1.42645468,12.078116 1.75170492,12.078116 1.95231318,12.2605442 L2.9171115,13.1379077 L5.29747223,10.4304957 C5.47470004,10.2290375 5.79796097,10.1963747 6.01949573,10.3575413 C6.24103049,10.5187078 6.27694837,10.8126732 6.09972056,11.0141314 L3.36004283,14.1283747 L3.00151323,14.5359221 L2.59568528,14.1668723 Z M8.92460977,2.60445901 L13.9246098,2.60445901 C14.4768945,2.60445901 14.9246098,3.05217426 14.9246098,3.60445901 C14.9246098,4.15674376 14.4768945,4.60445901 13.9246098,4.60445901 L8.92460977,4.60445901 C8.37232502,4.60445901 7.92460977,4.15674376 7.92460977,3.60445901 C7.92460977,3.05217426 8.37232502,2.60445901 8.92460977,2.60445901 Z M8.92460977,7.01031976 L13.9246098,7.01031976 C14.4768945,7.01031976 14.9246098,7.45803501 14.9246098,8.01031976 C14.9246098,8.56260451 14.4768945,9.01031976 13.9246098,9.01031976 L8.92460977,9.01031976 C8.37232502,9.01031976 7.92460977,8.56260451 7.92460977,8.01031976 C7.92460977,7.45803501 8.37232502,7.01031976 8.92460977,7.01031976 Z M8.92460977,11.395541 L13.9246098,11.395541 C14.4768945,11.395541 14.9246098,11.8432562 14.9246098,12.395541 C14.9246098,12.9478257 14.4768945,13.395541 13.9246098,13.395541 L8.92460977,13.395541 C8.37232502,13.395541 7.92460977,12.9478257 7.92460977,12.395541 C7.92460977,11.8432562 8.37232502,11.395541 8.92460977,11.395541 Z" id="path-1"></path>
    </defs>
    <g id="Editor-icons" stroke="none" stroke-width="1" fill="none" fill-rule="evenodd">
        <g id="confluence/16px/task-list">
            <mask id="mask-2" fill="white">
                <use xlink:href="#path-1"></use>
            </mask>
            <use id="Combined-Shape" fill="#394864" xlink:href="#path-1"></use>
        </g>
    </g>
</svg>