<?xml version="1.0" encoding="UTF-8"?>
<svg width="16px" height="16px" viewBox="0 0 16 16" version="1.1" xmlns="http://www.w3.org/2000/svg" xmlns:xlink="http://www.w3.org/1999/xlink">
    <!-- Generator: Sketch 48.2 (47327) - http://www.bohemiancoding.com/sketch -->
    <title>confluence/16px/text-color-underline</title>
    <desc>Created with Sketch.</desc>
    <defs></defs>
    <g id="Editor-icons" stroke="none" stroke-width="1" fill="none" fill-rule="evenodd">
        <g id="confluence/16px/text-color-underline" fill="#42526E">
            <polygon id="Path" points="1.72156041 12.7088297 14.2784396 12.7088297 14.2784396 14.8016429 1.72156041 14.8016429"></polygon>
            <path d="M10.0928132,9.0464066 L5.9071868,9.0464066 L4.8607802,11.6624231 L2.76796701,11.6624231 L6.75896177,1.19835711 L9.24103823,1.19835711 L13.232033,11.6624231 L11.1392198,11.6624231 L10.0928132,9.0464066 Z M9.5696099,7.4767967 L8,2.24476371 C7.55318438,3.70973294 6.4303901,7.4767967 6.4303901,7.4767967 L9.5696099,7.4767967 Z" id="Combined-Shape"></path>
        </g>
    </g>
</svg>