<?xml version="1.0" encoding="UTF-8"?>
<svg width="16px" height="16px" viewBox="0 0 16 16" version="1.1" xmlns="http://www.w3.org/2000/svg" xmlns:xlink="http://www.w3.org/1999/xlink">
    <!-- Generator: Sketch 48.2 (47327) - http://www.bohemiancoding.com/sketch -->
    <title>confluence/16px/underline</title>
    <desc>Created with Sketch.</desc>
    <defs></defs>
    <g id="Editor-icons---v2" stroke="none" stroke-width="1" fill="none" fill-rule="evenodd">
        <g id="confluence/16px/underline" fill="#42526E" fill-rule="nonzero">
            <path d="M3,2 L5,2 L5,7 C5,8.88393342 5.93005548,10 8,10 C10.0699445,10 11,8.88393342 11,7 L11,2 L13,2 L13,7 C13,9.91606658 11.2633888,12 8,12 C4.73661118,12 3,9.91606658 3,7 L3,2 Z M2,13.5046844 C2,13.2259549 2.22900057,13 2.50034732,13 L13.4996527,13 C13.7759869,13 14,13.214035 14,13.5046844 L14,14.4953156 C14,14.7740451 13.7709994,15 13.4996527,15 L2.50034732,15 C2.22401312,15 2,14.785965 2,14.4953156 L2,13.5046844 Z" id="Shape"></path>
        </g>
    </g>
</svg>